{
   "page":1,
   "per_page":6,
   "total":12,
   "total_pages":2,
   "data":[
      {
         "id":1,
         "email":"franc200078@gmail.com",
         "first_name":"Christian Franc",
         "last_name":"Carvajal",
         "avatar":"https://raw.githubusercontent.com/Koykoy200078/CARVAJAL/main/AaA001.jpg"
      }
   ]
}
